AAA 17.4 15.2 16.3 15.9 4,071,900 0 16.40 15.85
AAM 10.9 9.5 10.2 10.3 300 0 10.30 10.30
AAT 18.9 16.5 17.7 18.6 945,200 0 18.80 17.50
ABS 60.2 52.4 56.3 52.4 5,000 0 52.40 52.40
ACB 37.8 32.9 35.3 34.8 7,783,800 12,447,800 35.35 34.65